{"failedCount":0,"prefixedPath":"classpath:Features\/Sample.feature","packageQualifiedName":"Features.Sample","loopIndex":-1,"relativePath":"Features\/Sample.feature","scenarioResults":[{"sectionIndex":0,"stepResults":[{"result":{"nanos":6959100,"startTime":1750735715040,"endTime":1750735715047,"millis":6.9591,"status":"passed"},"step":{"line":5,"prefix":"*","index":0,"text":"def User = Java.type('Models.User')"}},{"result":{"nanos":380195400,"startTime":1750735715047,"endTime":1750735715427,"millis":380.1954,"status":"passed"},"step":{"line":6,"prefix":"*","index":1,"text":"def userObj = new User()"}},{"result":{"nanos":13061700,"startTime":1750735715427,"endTime":1750735715440,"millis":13.0617,"status":"passed"},"step":{"line":7,"prefix":"*","index":2,"text":"def userMap = userObj.toMap()"}},{"result":{"nanos":11784300,"startTime":1750735715440,"endTime":1750735715452,"millis":11.7843,"status":"passed"},"step":{"line":8,"prefix":"*","index":3,"text":"print 'Request payload:', userMap"},"stepLog":"08:58:35.452 [print] Request payload: {\n  \"name\": \"Lelah Gutkowski\",\n  \"job\": \"Cloud\"\n}\n \n"},{"result":{"nanos":625700,"startTime":1750735715452,"endTime":1750735715453,"millis":0.6257,"status":"passed"},"step":{"line":10,"prefix":"Given","index":4,"text":"url 'https:\/\/reqres.in\/api'"}},{"result":{"nanos":497100,"startTime":1750735715453,"endTime":1750735715453,"millis":0.4971,"status":"passed"},"step":{"line":11,"prefix":"And","index":5,"text":"path 'users'"}},{"result":{"nanos":425300,"startTime":1750735715454,"endTime":1750735715454,"millis":0.4253,"status":"passed"},"step":{"line":12,"prefix":"And","index":6,"text":"header Content-Type = 'application\/json'"}},{"result":{"nanos":412400,"startTime":1750735715454,"endTime":1750735715454,"millis":0.4124,"status":"passed"},"step":{"line":13,"prefix":"And","index":7,"text":"header x-api-key = 'reqres-free-v1'"}},{"result":{"nanos":523100,"startTime":1750735715455,"endTime":1750735715456,"millis":0.5231,"status":"passed"},"step":{"line":14,"prefix":"And","index":8,"text":"request userMap"}},{"result":{"nanos":636696900,"startTime":1750735715455,"endTime":1750735716092,"millis":636.6969,"status":"passed"},"step":{"line":15,"prefix":"When","index":9,"text":"method POST"},"stepLog":"08:58:35.457 request:\n1 > POST https:\/\/reqres.in\/api\/users\n1 > Content-Type: application\/json; charset=UTF-8\n1 > x-api-key: reqres-free-v1\n1 > Content-Length: 40\n1 > Host: reqres.in\n1 > Connection: Keep-Alive\n1 > User-Agent: Apache-HttpClient\/4.5.14 (Java\/18.0.1)\n1 > Accept-Encoding: gzip,deflate\n{\"name\":\"Lelah Gutkowski\",\"job\":\"Cloud\"}\n\n08:58:36.088 response time in milliseconds: 626\n1 < 201\n1 < Date: Tue, 24 Jun 2025 03:28:36 GMT\n1 < Content-Type: application\/json; charset=utf-8\n1 < Content-Length: 90\n1 < Connection: keep-alive\n1 < Cf-Ray: 954922cf88647ea3-MAA\n1 < Report-To: {\"group\":\"heroku-nel\",\"max_age\":3600,\"endpoints\":[{\"url\":\"https:\/\/nel.heroku.com\/reports?ts=1750735716&sid=c4c9725f-1ab0-44d8-820f-430df2718e11&s=2giQPjrRPD9ig240PY%2BFyPgpYNGy5NOqaYumYQ9cGFs%3D\"}]}\n1 < Reporting-Endpoints: heroku-nel=https:\/\/nel.heroku.com\/reports?ts=1750735716&sid=c4c9725f-1ab0-44d8-820f-430df2718e11&s=2giQPjrRPD9ig240PY%2BFyPgpYNGy5NOqaYumYQ9cGFs%3D\n1 < Nel: {\"report_to\":\"heroku-nel\",\"max_age\":3600,\"success_fraction\":0.005,\"failure_fraction\":0.05,\"response_headers\":[\"Via\"]}\n1 < X-Powered-By: Express\n1 < Access-Control-Allow-Origin: *\n1 < Ratelimit-Policy: 100;w=60\n1 < Ratelimit-Limit: 100\n1 < Ratelimit-Remaining: 94\n1 < Ratelimit-Reset: 58\n1 < Etag: W\/\"5a-KN9mgkU8kmZFQxquM0z0i1JWmd4\"\n1 < Via: 1.1 vegur\n1 < Cf-Cache-Status: DYNAMIC\n1 < Server: cloudflare\n1 < server-timing: cfL4;desc=\"?proto=TCP&rtt=58686&min_rtt=50628&rtt_var=24741&sent=3&recv=5&lost=0&retrans=0&sent_bytes=187&recv_bytes=1299&delivery_rate=26033&cwnd=250&unsent_bytes=0&cid=b84bca5f899c6f83&ts=488&x=0\"\n{\"name\":\"Lelah Gutkowski\",\"job\":\"Cloud\",\"id\":\"487\",\"createdAt\":\"2025-06-24T03:28:36.132Z\"}\n\n"},{"result":{"nanos":29700,"startTime":1750735716093,"endTime":1750735716093,"millis":0.0297,"status":"passed"},"step":{"line":16,"prefix":"Then","index":10,"text":"status 201"}},{"result":{"nanos":3999100,"startTime":1750735716093,"endTime":1750735716097,"millis":3.9991,"status":"passed"},"step":{"line":17,"prefix":"And","index":11,"text":"print 'Response:', response"},"stepLog":"08:58:36.097 [print] Response: {\n  \"name\": \"Lelah Gutkowski\",\n  \"job\": \"Cloud\",\n  \"id\": \"487\",\n  \"createdAt\": \"2025-06-24T03:28:36.132Z\"\n}\n \n"}],"executorName":"main","line":3,"name":"Create details","description":"","durationMillis":1055.2098,"startTime":1750735715040,"failed":false,"refId":"[1:3]","endTime":1750735716097,"exampleIndex":-1},{"sectionIndex":1,"stepResults":[{"result":{"nanos":1053900,"startTime":1750735716132,"endTime":1750735716133,"millis":1.0539,"status":"passed"},"step":{"line":21,"prefix":"Given","index":0,"text":"url 'https:\/\/reqres.in\/api'"}},{"result":{"nanos":943900,"startTime":1750735716133,"endTime":1750735716134,"millis":0.9439,"status":"passed"},"step":{"line":22,"prefix":"And","index":1,"text":"path 'users'"}},{"result":{"nanos":2203000,"startTime":1750735716134,"endTime":1750735716136,"millis":2.203,"status":"passed"},"step":{"line":23,"prefix":"And","index":2,"text":"param page = 2"}},{"result":{"nanos":312600,"startTime":1750735716136,"endTime":1750735716136,"millis":0.3126,"status":"passed"},"step":{"line":24,"prefix":"And","index":3,"text":"header x-api-key = 'reqres-free-v1'"}},{"result":{"nanos":249161200,"startTime":1750735716137,"endTime":1750735716386,"millis":249.1612,"status":"passed"},"step":{"line":25,"prefix":"When","index":4,"text":"method GET"},"stepLog":"08:58:36.142 request:\n1 > GET https:\/\/reqres.in\/api\/users?page=2\n1 > x-api-key: reqres-free-v1\n1 > Host: reqres.in\n1 > Connection: Keep-Alive\n1 > User-Agent: Apache-HttpClient\/4.5.14 (Java\/18.0.1)\n1 > Accept-Encoding: gzip,deflate\n\n\n08:58:36.384 response time in milliseconds: 239\n1 < 200\n1 < Date: Tue, 24 Jun 2025 03:28:36 GMT\n1 < Content-Type: application\/json; charset=utf-8\n1 < Transfer-Encoding: chunked\n1 < Connection: keep-alive\n1 < Report-To: {\"group\":\"heroku-nel\",\"max_age\":3600,\"endpoints\":[{\"url\":\"https:\/\/nel.heroku.com\/reports?ts=1750735133&sid=c4c9725f-1ab0-44d8-820f-430df2718e11&s=ZmQv3T32TcMQVYl5yKkJkSdgfg4NRIJanwvgUNw%2F6pI%3D\"}]}\n1 < Reporting-Endpoints: heroku-nel=https:\/\/nel.heroku.com\/reports?ts=1750735133&sid=c4c9725f-1ab0-44d8-820f-430df2718e11&s=ZmQv3T32TcMQVYl5yKkJkSdgfg4NRIJanwvgUNw%2F6pI%3D\n1 < Nel: {\"report_to\":\"heroku-nel\",\"max_age\":3600,\"success_fraction\":0.005,\"failure_fraction\":0.05,\"response_headers\":[\"Via\"]}\n1 < X-Powered-By: Express\n1 < Access-Control-Allow-Origin: *\n1 < Ratelimit-Policy: 100;w=60\n1 < Ratelimit-Limit: 100\n1 < Ratelimit-Remaining: 98\n1 < Ratelimit-Reset: 60\n1 < Etag: W\/\"440-ZjsmMKR8P3usr2uJZbOCGCxC3Uw\"\n1 < Via: 1.1 vegur\n1 < Cache-Control: max-age=14400\n1 < Cf-Cache-Status: HIT\n1 < Age: 583\n1 < Vary: Accept-Encoding\n1 < Server: cloudflare\n1 < Cf-Ray: 954922d3e93c6091-MAA\n1 < server-timing: cfL4;desc=\"?proto=TCP&rtt=77488&min_rtt=60969&rtt_var=34662&sent=3&recv=5&lost=0&retrans=0&sent_bytes=187&recv_bytes=1198&delivery_rate=21617&cwnd=250&unsent_bytes=0&cid=3953eb89c4daf2f4&ts=83&x=0\"\n{\"page\":2,\"per_page\":6,\"total\":12,\"total_pages\":2,\"data\":[{\"id\":7,\"email\":\"michael.lawson@reqres.in\",\"first_name\":\"Michael\",\"last_name\":\"Lawson\",\"avatar\":\"https:\/\/reqres.in\/img\/faces\/7-image.jpg\"},{\"id\":8,\"email\":\"lindsay.ferguson@reqres.in\",\"first_name\":\"Lindsay\",\"last_name\":\"Ferguson\",\"avatar\":\"https:\/\/reqres.in\/img\/faces\/8-image.jpg\"},{\"id\":9,\"email\":\"tobias.funke@reqres.in\",\"first_name\":\"Tobias\",\"last_name\":\"Funke\",\"avatar\":\"https:\/\/reqres.in\/img\/faces\/9-image.jpg\"},{\"id\":10,\"email\":\"byron.fields@reqres.in\",\"first_name\":\"Byron\",\"last_name\":\"Fields\",\"avatar\":\"https:\/\/reqres.in\/img\/faces\/10-image.jpg\"},{\"id\":11,\"email\":\"george.edwards@reqres.in\",\"first_name\":\"George\",\"last_name\":\"Edwards\",\"avatar\":\"https:\/\/reqres.in\/img\/faces\/11-image.jpg\"},{\"id\":12,\"email\":\"rachel.howell@reqres.in\",\"first_name\":\"Rachel\",\"last_name\":\"Howell\",\"avatar\":\"https:\/\/reqres.in\/img\/faces\/12-image.jpg\"}],\"support\":{\"url\":\"https:\/\/contentcaddy.io?utm_source=reqres&utm_medium=json&utm_campaign=referral\",\"text\":\"Tired of writing endless social media content? Let Content Caddy generate it for you.\"}}\n\n"},{"result":{"nanos":17900,"startTime":1750735716386,"endTime":1750735716386,"millis":0.0179,"status":"passed"},"step":{"line":26,"prefix":"Then","index":5,"text":"status 200"}}],"executorName":"main","line":19,"name":"Get details","description":"","durationMillis":253.6925,"startTime":1750735716131,"failed":false,"refId":"[2:19]","endTime":1750735716386,"exampleIndex":-1}],"callDepth":0,"name":"Add and Get the user details","description":"","resultDate":"2025-06-24 08:58:36 am","durationMillis":1308.9023,"passedCount":2}